{
    "profiles": {
        "base": {
            "package-list": ["base", "linux", "sudo", "openssh"],
            "service-list": ["systemd-timesyncd.service", "dhcpcd.service", "sshd.service"],
            "admin-group-list": ["wheel"],
            "file-list": {
                "/etc/sudoers.d/wheel": {
                    "permissions": "440",
                    "content": "%wheel ALL=(ALL) NOPASSWD: ALL"
                },
                "/etc/locale.gen": {
                    "permissions": "644",
                    "content": "en_US.UTF-8 UTF-8"
                }
            }
        },
        "wol": {
            "file-list": {
                "/etc/systemd/network/99-default.link.d/50-wired.conf": {
                    "permissions": "644",
                    "content": ["[Link]", "WakeOnLan=magic"]
                }
            }
        },
        "git": {
            "package-list": "git"
        },
        "docker": {
            "package-list": ["docker"],
            "service-list": ["docker.service"],
            "admin-group-list": ["docker"]
        },
        "vbox": {
            "unique-bundle": "vbox",
            "package-list": ["virtualbox-guest-utils", "virtualbox-guest-modules-arch"],
            "service-list": ["vboxservice.service"]
        },
        "vbox-nox": {
            "unique-bundle": "vbox",
            "package-list": ["virtualbox-guest-utils-nox", "virtualbox-guest-modules-arch"],
            "service-list": ["vboxservice.service"]
        },
        "xfce": {
            "unique-bundle": "desktop",
            "package-list": ["xfce4", "lxdm", "xorg-server", "firefox", "ttf-dejavu"],
            "service-list": ["lxdm.service"]
        },
        "radeon": {
            "package-list": ["libva-mesa-driver"],
            "comments": "package-list for consideration: libva-vdpau-driver, libvdpau-va-gl"
        }
    },
    "keyboard-layouts": {
        "br": {
            "loadkeys": "br-abnt",
            "xkb": {
                "layout": "br"
            }
        },
        "us-intl": {
            "loadkeys": "br-latin1-us",
            "xkb": {
                "layout": "br"
            }
        }
    },
    "filesystems": {
        "fdisk": {
            "efi": "EFI System",
            "lvm": "Linux LVM",
            "ext4": "Linux filesystem"
        },
        "mkfs": {
            "efi": ["mkfs.fat", "-F32"],
            "lvm": ["pvcreate"],
            "ext4": ["mkfs.ext4"]
        }
    },
    "installer": {
        "install-dir": "/mnt/root",
        "keys-dir": "/mnt/keys",
        "keys-prefix": "",
        "keys-suffix": ".keys"
    }
}
